{
  "project_info": {
    "project_number": "386343183524",
    "project_id": "taller-login",
    "storage_bucket": "taller-login.appspot.com"
  },
  "client": [
    {
      "client_info": {
        "mobilesdk_app_id": "1:386343183524:android:c56e99f657c491b0e13231",
        "android_client_info": {
          "package_name": "com.example.login_taller"
        }
      },
      "oauth_client": [
        {
          "client_id": "386343183524-m23s4ie9ftl9c8j4b786j0o9o9n6rtnf.apps.googleusercontent.com",
          "client_type": 1,
          "android_info": {
            "package_name": "com.example.login_taller",
            "certificate_hash": "8a134296c1af715432245c9062500bede719b95a"
          }
        },
        {
          "client_id": "386343183524-e3pnndsfold3h89a4j7bbe0co43ef5jq.apps.googleusercontent.com",
          "client_type": 3
        }
      ],
      "api_key": [
        {
          "current_key": "AIzaSyCZylppjXV1b60nhrpBNpSBxuH-EnW4Q5w"
        }
      ],
      "services": {
        "appinvite_service": {
          "other_platform_oauth_client": [
            {
              "client_id": "386343183524-e3pnndsfold3h89a4j7bbe0co43ef5jq.apps.googleusercontent.com",
              "client_type": 3
            }
          ]
        }
      }
    }
  ],
  "configuration_version": "1"
}